dao\ProductDao.class
database\Database.class
com\mycompany\storeproject\poc\TestInsertProduct.class
dao\DaoInterface.class
UI\TestDialog$1$1.class
UI\TestDialog$1.class
UI\ProductPanel$ProductTableModel.class
UI\TestDialog.class
com\mycompany\storeproject\poc\TestConnection.class
model\Product.class
UI\ProductPanel.class
com\mycompany\storeproject\poc\TestSelectProduct.class
UI\ProductPanel$1.class
com\mycompany\storeproject\poc\TestDeleteProduct.class
UI\ProductPanel$2.class
TestUpdateProduct.class
